EESchema Schematic File Version 2
LIBS:power
LIBS:device
LIBS:transistors
LIBS:conn
LIBS:linear
LIBS:regul
LIBS:74xx
LIBS:cmos4000
LIBS:adc-dac
LIBS:memory
LIBS:xilinx
LIBS:microcontrollers
LIBS:dsp
LIBS:microchip
LIBS:analog_switches
LIBS:motorola
LIBS:texas
LIBS:intel
LIBS:audio
LIBS:interface
LIBS:digital-audio
LIBS:philips
LIBS:display
LIBS:cypress
LIBS:siliconi
LIBS:opto
LIBS:atmel
LIBS:contrib
LIBS:valves
LIBS:main-cache
EELAYER 25 0
EELAYER END
$Descr A3 16535 11693
encoding utf-8
Sheet 1 1
Title ""
Date ""
Rev ""
Comp ""
Comment1 ""
Comment2 ""
Comment3 ""
Comment4 ""
$EndDescr
$Comp
L Crystal Y1
U 1 1 5A77251D
P 7000 3800
F 0 "Y1" H 7000 3950 50  0000 C CNN
F 1 "7.3728MHz" H 7000 3650 50  0000 C CNN
F 2 "Crystals:Crystal_HC49-U_Vertical" H 7000 3800 50  0001 C CNN
F 3 "" H 7000 3800 50  0000 C CNN
	1    7000 3800
	0    1    1    0   
$EndComp
$Comp
L C C3
U 1 1 5A7725B1
P 6650 3600
F 0 "C3" H 6675 3700 50  0000 L CNN
F 1 "22" H 6675 3500 50  0000 L CNN
F 2 "Capacitors_ThroughHole:C_Disc_D3_P2.5" H 6688 3450 50  0001 C CNN
F 3 "" H 6650 3600 50  0000 C CNN
	1    6650 3600
	0    1    1    0   
$EndComp
$Comp
L C C4
U 1 1 5A7725E1
P 6650 4000
F 0 "C4" H 6675 4100 50  0000 L CNN
F 1 "22" H 6675 3900 50  0000 L CNN
F 2 "Capacitors_ThroughHole:C_Disc_D3_P2.5" H 6688 3850 50  0001 C CNN
F 3 "" H 6650 4000 50  0000 C CNN
	1    6650 4000
	0    1    1    0   
$EndComp
$Comp
L GND #PWR01
U 1 1 5A77263E
P 6100 3900
F 0 "#PWR01" H 6100 3650 50  0001 C CNN
F 1 "GND" H 6100 3750 50  0000 C CNN
F 2 "" H 6100 3900 50  0000 C CNN
F 3 "" H 6100 3900 50  0000 C CNN
	1    6100 3900
	1    0    0    -1  
$EndComp
$Comp
L VCC #PWR02
U 1 1 5A772722
P 7100 2500
F 0 "#PWR02" H 7100 2350 50  0001 C CNN
F 1 "VCC" H 7100 2650 50  0000 C CNN
F 2 "" H 7100 2500 50  0000 C CNN
F 3 "" H 7100 2500 50  0000 C CNN
	1    7100 2500
	1    0    0    -1  
$EndComp
$Comp
L R R6
U 1 1 5A772776
P 7100 2950
F 0 "R6" V 7180 2950 50  0000 C CNN
F 1 "6.2K" V 7100 2950 50  0000 C CNN
F 2 "Resistors_SMD:R_1206_HandSoldering" V 7030 2950 50  0001 C CNN
F 3 "" H 7100 2950 50  0000 C CNN
	1    7100 2950
	1    0    0    -1  
$EndComp
$Comp
L C C2
U 1 1 5A772832
P 6650 3200
F 0 "C2" H 6675 3300 50  0000 L CNN
F 1 "0.1" H 6675 3100 50  0000 L CNN
F 2 "Capacitors_SMD:C_1206_HandSoldering" H 6688 3050 50  0001 C CNN
F 3 "" H 6650 3200 50  0000 C CNN
	1    6650 3200
	0    1    1    0   
$EndComp
Text Label 7050 3200 2    60   ~ 0
RST
$Comp
L AVR-ISP-10 CON1
U 1 1 5A772A26
P 4600 3500
F 0 "CON1" H 4430 3830 50  0000 C CNN
F 1 "AVR-ISP-10" H 4260 3170 50  0000 L BNN
F 2 "Connect:IDC_Header_Straight_10pins" V 3850 3550 50  0001 C CNN
F 3 "" H 4600 3500 50  0000 C CNN
	1    4600 3500
	-1   0    0    -1  
$EndComp
$Comp
L GND #PWR03
U 1 1 5A772AFA
P 4200 3800
F 0 "#PWR03" H 4200 3550 50  0001 C CNN
F 1 "GND" H 4200 3650 50  0000 C CNN
F 2 "" H 4200 3800 50  0000 C CNN
F 3 "" H 4200 3800 50  0000 C CNN
	1    4200 3800
	1    0    0    -1  
$EndComp
$Comp
L VCC #PWR04
U 1 1 5A772C05
P 4200 3100
F 0 "#PWR04" H 4200 2950 50  0001 C CNN
F 1 "VCC" H 4200 3250 50  0000 C CNN
F 2 "" H 4200 3100 50  0000 C CNN
F 3 "" H 4200 3100 50  0000 C CNN
	1    4200 3100
	1    0    0    -1  
$EndComp
$Comp
L C C1
U 1 1 5A772C90
P 3900 3500
F 0 "C1" H 3925 3600 50  0000 L CNN
F 1 "0.1" H 3925 3400 50  0000 L CNN
F 2 "Capacitors_SMD:C_1206_HandSoldering" H 3938 3350 50  0001 C CNN
F 3 "" H 3900 3500 50  0000 C CNN
	1    3900 3500
	1    0    0    -1  
$EndComp
Text Label 5400 3300 2    60   ~ 0
MOSI
Text Label 5400 3500 2    60   ~ 0
RST
Text Label 5400 3600 2    60   ~ 0
SCK
Text Label 5400 3700 2    60   ~ 0
MISO
NoConn ~ 4800 3400
Text Label 9700 4600 2    60   ~ 0
MOSI
Text Label 9700 4700 2    60   ~ 0
MISO
Text Label 9700 4800 2    60   ~ 0
SCK
$Comp
L R R5
U 1 1 5A773238
P 6850 2700
F 0 "R5" V 6930 2700 50  0000 C CNN
F 1 "15K" V 6850 2700 50  0000 C CNN
F 2 "Resistors_SMD:R_1206_HandSoldering" V 6780 2700 50  0001 C CNN
F 3 "" H 6850 2700 50  0000 C CNN
	1    6850 2700
	0    1    1    0   
$EndComp
Text Label 6100 2700 0    60   ~ 0
SCK
$Comp
L VCC #PWR05
U 1 1 5A773556
P 8100 2000
F 0 "#PWR05" H 8100 1850 50  0001 C CNN
F 1 "VCC" H 8100 2150 50  0000 C CNN
F 2 "" H 8100 2000 50  0000 C CNN
F 3 "" H 8100 2000 50  0000 C CNN
	1    8100 2000
	1    0    0    -1  
$EndComp
$Comp
L C C9
U 1 1 5A7735A0
P 7650 2600
F 0 "C9" H 7675 2700 50  0000 L CNN
F 1 "0.1" H 7675 2500 50  0000 L CNN
F 2 "Capacitors_SMD:C_1206_HandSoldering" H 7688 2450 50  0001 C CNN
F 3 "" H 7650 2600 50  0000 C CNN
	1    7650 2600
	0    1    1    0   
$EndComp
$Comp
L GND #PWR06
U 1 1 5A77367E
P 7400 2700
F 0 "#PWR06" H 7400 2450 50  0001 C CNN
F 1 "GND" H 7400 2550 50  0000 C CNN
F 2 "" H 7400 2700 50  0000 C CNN
F 3 "" H 7400 2700 50  0000 C CNN
	1    7400 2700
	1    0    0    -1  
$EndComp
$Comp
L R R8
U 1 1 5A773726
P 8300 2600
F 0 "R8" V 8380 2600 50  0000 C CNN
F 1 "100" V 8300 2600 50  0000 C CNN
F 2 "Resistors_SMD:R_1206_HandSoldering" V 8230 2600 50  0001 C CNN
F 3 "" H 8300 2600 50  0000 C CNN
	1    8300 2600
	0    1    1    0   
$EndComp
$Comp
L C C10
U 1 1 5A773809
P 8800 2600
F 0 "C10" H 8825 2700 50  0000 L CNN
F 1 "0.1" H 8825 2500 50  0000 L CNN
F 2 "Capacitors_SMD:C_1206_HandSoldering" H 8838 2450 50  0001 C CNN
F 3 "" H 8800 2600 50  0000 C CNN
	1    8800 2600
	0    1    1    0   
$EndComp
$Comp
L GND #PWR07
U 1 1 5A77385D
P 9050 2700
F 0 "#PWR07" H 9050 2450 50  0001 C CNN
F 1 "GND" H 9050 2550 50  0000 C CNN
F 2 "" H 9050 2700 50  0000 C CNN
F 3 "" H 9050 2700 50  0000 C CNN
	1    9050 2700
	1    0    0    -1  
$EndComp
$Comp
L GND #PWR08
U 1 1 5A773AB6
P 8100 7100
F 0 "#PWR08" H 8100 6850 50  0001 C CNN
F 1 "GND" H 8100 6950 50  0000 C CNN
F 2 "" H 8100 7100 50  0000 C CNN
F 3 "" H 8100 7100 50  0000 C CNN
	1    8100 7100
	1    0    0    -1  
$EndComp
$Comp
L R R9
U 1 1 5A773CA4
P 9300 2600
F 0 "R9" V 9380 2600 50  0000 C CNN
F 1 "6.2K" V 9300 2600 50  0000 C CNN
F 2 "Resistors_SMD:R_1206_HandSoldering" V 9230 2600 50  0001 C CNN
F 3 "" H 9300 2600 50  0000 C CNN
	1    9300 2600
	0    -1   -1   0   
$EndComp
Text Label 8350 2800 0    60   ~ 0
AVCC
$Comp
L R R10
U 1 1 5A773F65
P 9800 2600
F 0 "R10" V 9880 2600 50  0000 C CNN
F 1 "15K" V 9800 2600 50  0000 C CNN
F 2 "Resistors_SMD:R_1206_HandSoldering" V 9730 2600 50  0001 C CNN
F 3 "" H 9800 2600 50  0000 C CNN
	1    9800 2600
	0    -1   -1   0   
$EndComp
Text Label 9550 3200 2    60   ~ 0
VMETER
$Comp
L C C5
U 1 1 5A7743BD
P 6950 4400
F 0 "C5" H 6975 4500 50  0000 L CNN
F 1 "0.1" H 6975 4300 50  0000 L CNN
F 2 "Capacitors_SMD:C_1206_HandSoldering" H 6988 4250 50  0001 C CNN
F 3 "" H 6950 4400 50  0000 C CNN
	1    6950 4400
	0    1    1    0   
$EndComp
$Comp
L GND #PWR09
U 1 1 5A77443E
P 6700 4500
F 0 "#PWR09" H 6700 4250 50  0001 C CNN
F 1 "GND" H 6700 4350 50  0000 C CNN
F 2 "" H 6700 4500 50  0000 C CNN
F 3 "" H 6700 4500 50  0000 C CNN
	1    6700 4500
	1    0    0    -1  
$EndComp
$Comp
L CONN_02X10 P9
U 1 1 5A774629
P 13250 1550
F 0 "P9" H 13250 2100 50  0000 C CNN
F 1 "LCD" V 13250 1550 50  0000 C CNN
F 2 "Pin_Headers:Pin_Header_Straight_2x10" H 13250 350 50  0001 C CNN
F 3 "" H 13250 350 50  0000 C CNN
	1    13250 1550
	1    0    0    -1  
$EndComp
$Comp
L ATMEGA1284-A IC1
U 1 1 5A7770D2
P 8200 4900
F 0 "IC1" H 7350 6780 50  0000 L BNN
F 1 "ATMEGA1284" H 8600 2950 50  0000 L BNN
F 2 "Housings_QFP:TQFP-44_10x10mm_Pitch0.8mm" H 8200 4900 50  0000 C CIN
F 3 "" H 8200 4900 50  0000 C CNN
	1    8200 4900
	1    0    0    -1  
$EndComp
$Comp
L C C8
U 1 1 5A777503
P 7650 2350
F 0 "C8" H 7675 2450 50  0000 L CNN
F 1 "0.1" H 7675 2250 50  0000 L CNN
F 2 "Capacitors_SMD:C_1206_HandSoldering" H 7688 2200 50  0001 C CNN
F 3 "" H 7650 2350 50  0000 C CNN
	1    7650 2350
	0    1    1    0   
$EndComp
$Comp
L C C7
U 1 1 5A777552
P 7650 2100
F 0 "C7" H 7675 2200 50  0000 L CNN
F 1 "0.1" H 7675 2000 50  0000 L CNN
F 2 "Capacitors_SMD:C_1206_HandSoldering" H 7688 1950 50  0001 C CNN
F 3 "" H 7650 2100 50  0000 C CNN
	1    7650 2100
	0    1    1    0   
$EndComp
$Comp
L +12V #PWR010
U 1 1 5A784D6B
P 10050 2500
F 0 "#PWR010" H 10050 2350 50  0001 C CNN
F 1 "+12V" H 10050 2640 50  0000 C CNN
F 2 "" H 10050 2500 50  0000 C CNN
F 3 "" H 10050 2500 50  0000 C CNN
	1    10050 2500
	1    0    0    -1  
$EndComp
NoConn ~ 13000 1400
NoConn ~ 13000 1500
NoConn ~ 13000 1600
NoConn ~ 13000 1700
NoConn ~ 13000 1800
NoConn ~ 13000 1900
NoConn ~ 13000 2000
NoConn ~ 13500 1800
NoConn ~ 13500 1900
NoConn ~ 13500 2000
$Comp
L C C15
U 1 1 5A785B34
P 13250 850
F 0 "C15" H 13275 950 50  0000 L CNN
F 1 "0.1" H 13275 750 50  0000 L CNN
F 2 "Capacitors_SMD:C_1206_HandSoldering" H 13288 700 50  0001 C CNN
F 3 "" H 13250 850 50  0000 C CNN
	1    13250 850 
	0    1    1    0   
$EndComp
Text Label 13900 1700 2    60   ~ 0
SCK
Text Label 13900 1600 2    60   ~ 0
MISO
Text Label 13900 1500 2    60   ~ 0
MOSI
Text Label 13900 1400 2    60   ~ 0
LCD_D4
Text Label 13900 1300 2    60   ~ 0
LCD_E
Text Label 13900 1200 2    60   ~ 0
LCD_RS
$Comp
L VCC #PWR011
U 1 1 5A785FB4
P 14000 1000
F 0 "#PWR011" H 14000 850 50  0001 C CNN
F 1 "VCC" H 14000 1150 50  0000 C CNN
F 2 "" H 14000 1000 50  0000 C CNN
F 3 "" H 14000 1000 50  0000 C CNN
	1    14000 1000
	1    0    0    -1  
$EndComp
$Comp
L GND #PWR012
U 1 1 5A786168
P 12300 1200
F 0 "#PWR012" H 12300 950 50  0001 C CNN
F 1 "GND" H 12300 1050 50  0000 C CNN
F 2 "" H 12300 1200 50  0000 C CNN
F 3 "" H 12300 1200 50  0000 C CNN
	1    12300 1200
	1    0    0    -1  
$EndComp
Text Label 12500 1300 0    60   ~ 0
LCD_RW
$Comp
L CONN_01X06 P10
U 1 1 5A7F8AA9
P 15500 1850
F 0 "P10" H 15500 2200 50  0000 C CNN
F 1 "HC05" V 15600 1850 50  0000 C CNN
F 2 "Pin_Headers:Pin_Header_Straight_1x08" H 15500 1850 50  0001 C CNN
F 3 "" H 15500 1850 50  0000 C CNN
	1    15500 1850
	1    0    0    -1  
$EndComp
$Comp
L GND #PWR013
U 1 1 5A7F8F17
P 15800 1600
F 0 "#PWR013" H 15800 1350 50  0001 C CNN
F 1 "GND" H 15800 1450 50  0000 C CNN
F 2 "" H 15800 1600 50  0000 C CNN
F 3 "" H 15800 1600 50  0000 C CNN
	1    15800 1600
	1    0    0    -1  
$EndComp
$Comp
L C C18
U 1 1 5A7F8FC2
P 15500 1150
F 0 "C18" H 15525 1250 50  0000 L CNN
F 1 "0.1" H 15525 1050 50  0000 L CNN
F 2 "Capacitors_SMD:C_1206_HandSoldering" H 15538 1000 50  0001 C CNN
F 3 "" H 15500 1150 50  0000 C CNN
	1    15500 1150
	0    1    1    0   
$EndComp
$Comp
L VCC #PWR014
U 1 1 5A7F91FB
P 15100 1050
F 0 "#PWR014" H 15100 900 50  0001 C CNN
F 1 "VCC" H 15100 1200 50  0000 C CNN
F 2 "" H 15100 1050 50  0000 C CNN
F 3 "" H 15100 1050 50  0000 C CNN
	1    15100 1050
	1    0    0    -1  
$EndComp
Text Label 15800 2350 2    60   ~ 0
BT_KEY
$Comp
L R R21
U 1 1 5A7F9512
P 15100 2250
F 0 "R21" V 15180 2250 50  0000 C CNN
F 1 "51K" V 15100 2250 50  0000 C CNN
F 2 "Resistors_SMD:R_1206_HandSoldering" V 15030 2250 50  0001 C CNN
F 3 "" H 15100 2250 50  0000 C CNN
	1    15100 2250
	1    0    0    -1  
$EndComp
$Comp
L GND #PWR015
U 1 1 5A7F9686
P 15100 2700
F 0 "#PWR015" H 15100 2450 50  0001 C CNN
F 1 "GND" H 15100 2550 50  0000 C CNN
F 2 "" H 15100 2700 50  0000 C CNN
F 3 "" H 15100 2700 50  0000 C CNN
	1    15100 2700
	1    0    0    -1  
$EndComp
Text Label 14700 1900 0    60   ~ 0
BT_TX
$Comp
L ZENER D1
U 1 1 5A7F981B
P 14850 2300
F 0 "D1" H 14850 2400 50  0000 C CNN
F 1 "3V0" H 14850 2200 50  0000 C CNN
F 2 "Diodes_SMD:SMB_Handsoldering" H 14850 2300 50  0001 C CNN
F 3 "" H 14850 2300 50  0000 C CNN
	1    14850 2300
	0    1    1    0   
$EndComp
$Comp
L R R20
U 1 1 5A7F9BEC
P 14450 2000
F 0 "R20" V 14530 2000 50  0000 C CNN
F 1 "2K" V 14450 2000 50  0000 C CNN
F 2 "Resistors_SMD:R_1206_HandSoldering" V 14380 2000 50  0001 C CNN
F 3 "" H 14450 2000 50  0000 C CNN
	1    14450 2000
	0    1    1    0   
$EndComp
Text Label 13900 2000 0    60   ~ 0
BT_RX
Text Label 9700 6000 2    60   ~ 0
BT_RX
Text Label 9700 5900 2    60   ~ 0
BT_TX
Text Label 9700 6100 2    60   ~ 0
M_ENA
Text Label 9700 6200 2    60   ~ 0
M_EN1
Text Label 9700 6300 2    60   ~ 0
M_EN2
Text Label 9700 6600 2    60   ~ 0
M_ENB
Text Label 9700 6500 2    60   ~ 0
M_EN4
Text Label 9700 6400 2    60   ~ 0
M_EN3
Text Label 9700 5400 2    60   ~ 0
WS_1
Text Label 9700 5500 2    60   ~ 0
WS_2
Text Label 9700 5600 2    60   ~ 0
WS_3
Text Label 9700 5700 2    60   ~ 0
WS_4
Text Label 9700 4500 2    60   ~ 0
LCD_D4
Text Label 9700 4400 2    60   ~ 0
LCD_E
Text Label 9700 4300 2    60   ~ 0
LCD_RS
Text Label 9700 4200 2    60   ~ 0
LCD_RW
Text Label 9700 4100 2    60   ~ 0
BEEP
Text Label 9700 5300 2    60   ~ 0
BT_KEY
Text Label 9700 5200 2    60   ~ 0
US_F
Text Label 9700 5100 2    60   ~ 0
US_R
Text Label 9700 5000 2    60   ~ 0
US_OUT
Text Label 9700 3900 2    60   ~ 0
BT_4
Text Label 9700 3800 2    60   ~ 0
BT_3
Text Label 9700 3700 2    60   ~ 0
BT_2
Text Label 9700 3600 2    60   ~ 0
BT_1
Text Label 9700 3500 2    60   ~ 0
VSEL
Text Label 9700 3400 2    60   ~ 0
PWRON
Text Label 9700 3300 2    60   ~ 0
WLED
$Comp
L CONN_01X02 P1
U 1 1 5A80380A
P 8800 1050
F 0 "P1" H 8800 1200 50  0000 C CNN
F 1 "JP_VSEL" V 8900 1050 50  0000 C CNN
F 2 "Pin_Headers:Pin_Header_Straight_1x02" H 8800 1050 50  0001 C CNN
F 3 "" H 8800 1050 50  0000 C CNN
	1    8800 1050
	1    0    0    -1  
$EndComp
$Comp
L GND #PWR016
U 1 1 5A803977
P 8500 1200
F 0 "#PWR016" H 8500 950 50  0001 C CNN
F 1 "GND" H 8500 1050 50  0000 C CNN
F 2 "" H 8500 1200 50  0000 C CNN
F 3 "" H 8500 1200 50  0000 C CNN
	1    8500 1200
	1    0    0    -1  
$EndComp
$Comp
L R R7
U 1 1 5A803A7C
P 8050 1000
F 0 "R7" V 8130 1000 50  0000 C CNN
F 1 "15K" V 8050 1000 50  0000 C CNN
F 2 "Resistors_SMD:R_1206_HandSoldering" V 7980 1000 50  0001 C CNN
F 3 "" H 8050 1000 50  0000 C CNN
	1    8050 1000
	0    1    1    0   
$EndComp
$Comp
L VCC #PWR017
U 1 1 5A803BEF
P 7800 900
F 0 "#PWR017" H 7800 750 50  0001 C CNN
F 1 "VCC" H 7800 1050 50  0000 C CNN
F 2 "" H 7800 900 50  0000 C CNN
F 3 "" H 7800 900 50  0000 C CNN
	1    7800 900 
	1    0    0    -1  
$EndComp
Text Label 8500 1000 2    60   ~ 0
VSEL
$Comp
L CONN_01X06 P11
U 1 1 5A8047B5
P 15600 3450
F 0 "P11" H 15600 3800 50  0000 C CNN
F 1 "MOTORS_CTL" V 15700 3450 50  0000 C CNN
F 2 "Pin_Headers:Pin_Header_Straight_1x06" H 15600 3450 50  0001 C CNN
F 3 "" H 15600 3450 50  0000 C CNN
	1    15600 3450
	1    0    0    -1  
$EndComp
Text Label 14900 3200 0    60   ~ 0
M_ENA
Text Label 14900 3300 0    60   ~ 0
M_EN1
Text Label 14900 3400 0    60   ~ 0
M_EN2
Text Label 14900 3500 0    60   ~ 0
M_EN3
Text Label 14900 3600 0    60   ~ 0
M_EN4
Text Label 14900 3700 0    60   ~ 0
M_ENB
$Comp
L CONN_01X08 P12
U 1 1 5A80A96D
P 15600 4350
F 0 "P12" H 15600 4800 50  0000 C CNN
F 1 "US_SENS" V 15700 4350 50  0000 C CNN
F 2 "Pin_Headers:Pin_Header_Straight_1x08" H 15600 4350 50  0001 C CNN
F 3 "" H 15600 4350 50  0000 C CNN
	1    15600 4350
	1    0    0    -1  
$EndComp
$Comp
L VCC #PWR018
U 1 1 5A80ACAF
P 15900 3800
F 0 "#PWR018" H 15900 3650 50  0001 C CNN
F 1 "VCC" H 15900 3950 50  0000 C CNN
F 2 "" H 15900 3800 50  0000 C CNN
F 3 "" H 15900 3800 50  0000 C CNN
	1    15900 3800
	1    0    0    -1  
$EndComp
$Comp
L C C16
U 1 1 5A80B11D
P 15050 3900
F 0 "C16" H 15075 4000 50  0000 L CNN
F 1 "0.1" H 15075 3800 50  0000 L CNN
F 2 "Capacitors_SMD:C_1206_HandSoldering" H 15088 3750 50  0001 C CNN
F 3 "" H 15050 3900 50  0000 C CNN
	1    15050 3900
	0    1    1    0   
$EndComp
$Comp
L C C17
U 1 1 5A80B361
P 15050 4800
F 0 "C17" H 15075 4900 50  0000 L CNN
F 1 "0.1" H 15075 4700 50  0000 L CNN
F 2 "Capacitors_SMD:C_1206_HandSoldering" H 15088 4650 50  0001 C CNN
F 3 "" H 15050 4800 50  0000 C CNN
	1    15050 4800
	0    1    1    0   
$EndComp
$Comp
L GND #PWR019
U 1 1 5A80B47D
P 14800 4900
F 0 "#PWR019" H 14800 4650 50  0001 C CNN
F 1 "GND" H 14800 4750 50  0000 C CNN
F 2 "" H 14800 4900 50  0000 C CNN
F 3 "" H 14800 4900 50  0000 C CNN
	1    14800 4900
	1    0    0    -1  
$EndComp
Text Label 14900 4200 0    60   ~ 0
US_R
Text Label 14900 4500 0    60   ~ 0
US_F
Text Label 14900 4300 0    60   ~ 0
US_R_OUT
Text Label 14900 4400 0    60   ~ 0
US_F_OUT
Text Label 12450 8750 2    60   ~ 0
US_OUT
Text Label 10050 8300 0    60   ~ 0
US_R_OUT
Text Label 10050 8400 0    60   ~ 0
US_F_OUT
$Comp
L CP C6
U 1 1 5A810498
P 7650 1800
F 0 "C6" H 7675 1900 50  0000 L CNN
F 1 "10.0" H 7675 1700 50  0000 L CNN
F 2 "Capacitors_Tantalum_SMD:TantalC_SizeE_EIA-7360_HandSoldering" H 7688 1650 50  0001 C CNN
F 3 "" H 7650 1800 50  0000 C CNN
	1    7650 1800
	0    1    1    0   
$EndComp
$Comp
L CONN_01X03 P5
U 1 1 5A859BB1
P 13000 2900
F 0 "P5" H 13000 3100 50  0000 C CNN
F 1 "WS1_C" V 13100 2900 50  0000 C CNN
F 2 "Pin_Headers:Pin_Header_Straight_1x03" H 13000 2900 50  0001 C CNN
F 3 "" H 13000 2900 50  0000 C CNN
	1    13000 2900
	1    0    0    -1  
$EndComp
$Comp
L CONN_01X03 P6
U 1 1 5A859CE9
P 13000 3800
F 0 "P6" H 13000 4000 50  0000 C CNN
F 1 "WS2_C" V 13100 3800 50  0000 C CNN
F 2 "Pin_Headers:Pin_Header_Straight_1x03" H 13000 3800 50  0001 C CNN
F 3 "" H 13000 3800 50  0000 C CNN
	1    13000 3800
	1    0    0    -1  
$EndComp
$Comp
L CONN_01X03 P7
U 1 1 5A859DED
P 13000 4700
F 0 "P7" H 13000 4900 50  0000 C CNN
F 1 "WS3_C" V 13100 4700 50  0000 C CNN
F 2 "Pin_Headers:Pin_Header_Straight_1x03" H 13000 4700 50  0001 C CNN
F 3 "" H 13000 4700 50  0000 C CNN
	1    13000 4700
	1    0    0    -1  
$EndComp
$Comp
L CONN_01X03 P8
U 1 1 5A85A07C
P 13000 5600
F 0 "P8" H 13000 5800 50  0000 C CNN
F 1 "WS4_C" V 13100 5600 50  0000 C CNN
F 2 "Pin_Headers:Pin_Header_Straight_1x03" H 13000 5600 50  0001 C CNN
F 3 "" H 13000 5600 50  0000 C CNN
	1    13000 5600
	1    0    0    -1  
$EndComp
$Comp
L VCC #PWR020
U 1 1 5A85A388
P 12500 2250
F 0 "#PWR020" H 12500 2100 50  0001 C CNN
F 1 "VCC" H 12500 2400 50  0000 C CNN
F 2 "" H 12500 2250 50  0000 C CNN
F 3 "" H 12500 2250 50  0000 C CNN
	1    12500 2250
	1    0    0    -1  
$EndComp
$Comp
L GND #PWR021
U 1 1 5A85A411
P 13300 6200
F 0 "#PWR021" H 13300 5950 50  0001 C CNN
F 1 "GND" H 13300 6050 50  0000 C CNN
F 2 "" H 13300 6200 50  0000 C CNN
F 3 "" H 13300 6200 50  0000 C CNN
	1    13300 6200
	1    0    0    -1  
$EndComp
$Comp
L C C11
U 1 1 5A85A894
P 12950 2500
F 0 "C11" H 12975 2600 50  0000 L CNN
F 1 "0.1" H 12975 2400 50  0000 L CNN
F 2 "Capacitors_SMD:C_1206_HandSoldering" H 12988 2350 50  0001 C CNN
F 3 "" H 12950 2500 50  0000 C CNN
	1    12950 2500
	0    1    1    0   
$EndComp
$Comp
L C C12
U 1 1 5A85AA73
P 12950 3400
F 0 "C12" H 12975 3500 50  0000 L CNN
F 1 "0.1" H 12975 3300 50  0000 L CNN
F 2 "Capacitors_SMD:C_1206_HandSoldering" H 12988 3250 50  0001 C CNN
F 3 "" H 12950 3400 50  0000 C CNN
	1    12950 3400
	0    1    1    0   
$EndComp
$Comp
L C C13
U 1 1 5A85AB2B
P 12950 4300
F 0 "C13" H 12975 4400 50  0000 L CNN
F 1 "0.1" H 12975 4200 50  0000 L CNN
F 2 "Capacitors_SMD:C_1206_HandSoldering" H 12988 4150 50  0001 C CNN
F 3 "" H 12950 4300 50  0000 C CNN
	1    12950 4300
	0    1    1    0   
$EndComp
$Comp
L C C14
U 1 1 5A85AC34
P 12950 5200
F 0 "C14" H 12975 5300 50  0000 L CNN
F 1 "0.1" H 12975 5100 50  0000 L CNN
F 2 "Capacitors_SMD:C_1206_HandSoldering" H 12988 5050 50  0001 C CNN
F 3 "" H 12950 5200 50  0000 C CNN
	1    12950 5200
	0    1    1    0   
$EndComp
Text Label 11900 2900 0    60   ~ 0
WS_1
Text Label 11900 3800 0    60   ~ 0
WS_2
Text Label 11900 4700 0    60   ~ 0
WS_3
Text Label 11900 5600 0    60   ~ 0
WS_4
$Comp
L Q_PMOS_DGS Q1
U 1 1 5A85DE28
P 10500 2900
F 0 "Q1" H 10800 2950 50  0000 R CNN
F 1 "IRF4905" H 11150 2850 50  0000 R CNN
F 2 "fp_main:D2PAK" H 10700 3000 50  0001 C CNN
F 3 "" H 10500 2900 50  0000 C CNN
	1    10500 2900
	-1   0    0    1   
$EndComp
$Comp
L Q_NPN_BCE Q2
U 1 1 5A92D1FD
P 10900 3600
F 0 "Q2" H 11200 3650 50  0000 R CNN
F 1 "Q_NPN_BCE" H 11500 3550 50  0000 R CNN
F 2 "TO_SOT_Packages_THT:TO-92_Inline_Wide" H 11100 3700 50  0001 C CNN
F 3 "" H 10900 3600 50  0000 C CNN
	1    10900 3600
	-1   0    0    -1  
$EndComp
$Comp
L R R13
U 1 1 5A92D360
P 10800 3150
F 0 "R13" V 10880 3150 50  0000 C CNN
F 1 "100" V 10800 3150 50  0000 C CNN
F 2 "Resistors_SMD:R_1206_HandSoldering" V 10730 3150 50  0001 C CNN
F 3 "" H 10800 3150 50  0000 C CNN
	1    10800 3150
	1    0    0    -1  
$EndComp
$Comp
L R R14
U 1 1 5A92D753
P 11050 2900
F 0 "R14" V 11130 2900 50  0000 C CNN
F 1 "6.2K" V 11050 2900 50  0000 C CNN
F 2 "Resistors_SMD:R_1206_HandSoldering" V 10980 2900 50  0001 C CNN
F 3 "" H 11050 2900 50  0000 C CNN
	1    11050 2900
	0    1    1    0   
$EndComp
$Comp
L GND #PWR022
U 1 1 5A92DEC7
P 10800 4200
F 0 "#PWR022" H 10800 3950 50  0001 C CNN
F 1 "GND" H 10800 4050 50  0000 C CNN
F 2 "" H 10800 4200 50  0000 C CNN
F 3 "" H 10800 4200 50  0000 C CNN
	1    10800 4200
	1    0    0    -1  
$EndComp
$Comp
L R R15
U 1 1 5A92E4B8
P 11200 3850
F 0 "R15" V 11280 3850 50  0000 C CNN
F 1 "150K" V 11200 3850 50  0000 C CNN
F 2 "Resistors_SMD:R_1206_HandSoldering" V 11130 3850 50  0001 C CNN
F 3 "" H 11200 3850 50  0000 C CNN
	1    11200 3850
	-1   0    0    1   
$EndComp
$Comp
L R R16
U 1 1 5A92E624
P 11450 3600
F 0 "R16" V 11530 3600 50  0000 C CNN
F 1 "6.2K" V 11450 3600 50  0000 C CNN
F 2 "Resistors_SMD:R_1206_HandSoldering" V 11380 3600 50  0001 C CNN
F 3 "" H 11450 3600 50  0000 C CNN
	1    11450 3600
	0    -1   -1   0   
$EndComp
Wire Wire Line
	6800 3600 7200 3600
Wire Wire Line
	7000 3600 7000 3650
Wire Wire Line
	6800 4000 7200 4000
Wire Wire Line
	7000 4000 7000 3950
Connection ~ 7000 3600
Connection ~ 7000 4000
Wire Wire Line
	6400 4000 6500 4000
Wire Wire Line
	6400 3600 6400 4000
Wire Wire Line
	6400 3800 6100 3800
Wire Wire Line
	6100 3200 6100 3900
Wire Wire Line
	6500 3600 6400 3600
Connection ~ 6400 3800
Wire Wire Line
	6800 3200 7200 3200
Wire Wire Line
	7100 3200 7100 3100
Wire Wire Line
	7100 2500 7100 2800
Connection ~ 7100 3200
Wire Wire Line
	6500 3200 6100 3200
Connection ~ 6100 3800
Wire Wire Line
	3900 3700 4550 3700
Wire Wire Line
	4200 3400 4200 3800
Wire Wire Line
	4550 3600 4200 3600
Connection ~ 4200 3700
Wire Wire Line
	4550 3500 4200 3500
Connection ~ 4200 3600
Wire Wire Line
	4550 3400 4200 3400
Connection ~ 4200 3500
Wire Wire Line
	3900 3300 4550 3300
Wire Wire Line
	4200 3300 4200 3100
Wire Wire Line
	3900 3300 3900 3350
Connection ~ 4200 3300
Wire Wire Line
	3900 3650 3900 3700
Wire Wire Line
	5400 3300 4800 3300
Wire Wire Line
	5400 3500 4800 3500
Wire Wire Line
	5400 3600 4800 3600
Wire Wire Line
	5400 3700 4800 3700
Wire Wire Line
	9700 4600 9200 4600
Wire Wire Line
	9700 4700 9200 4700
Wire Wire Line
	9700 4800 9200 4800
Wire Wire Line
	7000 2700 7100 2700
Connection ~ 7100 2700
Wire Wire Line
	6100 2700 6700 2700
Wire Wire Line
	8300 2800 8550 2800
Wire Wire Line
	8550 2800 8550 2600
Wire Wire Line
	8450 2600 8650 2600
Connection ~ 8550 2600
Wire Wire Line
	8950 2600 9150 2600
Wire Wire Line
	9050 2600 9050 2700
Wire Wire Line
	8100 6900 8100 7100
Wire Wire Line
	8200 7000 8200 6900
Wire Wire Line
	7900 7000 8200 7000
Connection ~ 8100 7000
Connection ~ 9050 2600
Wire Wire Line
	9200 3200 9550 3200
Wire Wire Line
	9550 3200 9550 2600
Wire Wire Line
	9450 2600 9650 2600
Connection ~ 9550 2600
Wire Wire Line
	10050 2500 10050 2600
Wire Wire Line
	9950 2600 11300 2600
Wire Wire Line
	6800 4400 6700 4400
Wire Wire Line
	6700 4400 6700 4500
Wire Wire Line
	7100 4400 7200 4400
Wire Wire Line
	8300 2800 8300 2900
Wire Wire Line
	7500 2600 7400 2600
Wire Wire Line
	7400 1800 7400 2700
Wire Wire Line
	7500 2350 7400 2350
Connection ~ 7400 2600
Wire Wire Line
	7500 2100 7400 2100
Connection ~ 7400 2350
Wire Wire Line
	7800 2600 7900 2600
Wire Wire Line
	7900 1800 7900 2900
Wire Wire Line
	7800 2350 8000 2350
Wire Wire Line
	8000 2100 8000 2900
Wire Wire Line
	10200 2100 7800 2100
Wire Wire Line
	8100 2000 8100 2900
Wire Wire Line
	8150 2600 8100 2600
Connection ~ 8100 2600
Connection ~ 8100 2100
Connection ~ 8000 2100
Connection ~ 8000 2350
Connection ~ 7900 2100
Connection ~ 7900 2600
Wire Wire Line
	8000 6900 8000 7000
Wire Wire Line
	7900 6900 7900 7000
Connection ~ 8000 7000
Wire Wire Line
	13900 1700 13500 1700
Wire Wire Line
	13900 1600 13500 1600
Wire Wire Line
	13900 1500 13500 1500
Wire Wire Line
	13900 1400 13500 1400
Wire Wire Line
	13900 1300 13500 1300
Wire Wire Line
	13900 1200 13500 1200
Wire Wire Line
	13500 1100 14000 1100
Wire Wire Line
	12300 1100 13000 1100
Wire Wire Line
	12500 1300 13000 1300
Wire Wire Line
	13600 1100 13600 850 
Wire Wire Line
	13600 850  13400 850 
Connection ~ 13600 1100
Wire Wire Line
	12900 850  12900 1200
Wire Wire Line
	12900 850  13100 850 
Connection ~ 12900 1100
Wire Wire Line
	14000 1100 14000 1000
Wire Wire Line
	12300 1000 12300 1200
Wire Wire Line
	15300 1800 15200 1800
Wire Wire Line
	15200 1800 15200 1450
Wire Wire Line
	15200 1450 15800 1450
Wire Wire Line
	15800 1150 15800 1600
Wire Wire Line
	15100 1700 15300 1700
Wire Wire Line
	15100 1050 15100 1700
Wire Wire Line
	15100 1150 15350 1150
Wire Wire Line
	15650 1150 15800 1150
Connection ~ 15800 1450
Connection ~ 15100 1150
Wire Wire Line
	14700 1900 15300 1900
Wire Wire Line
	15100 2100 15100 1900
Connection ~ 15100 1900
Wire Wire Line
	15100 2400 15100 2700
Wire Wire Line
	14850 2500 14850 2600
Wire Wire Line
	14850 2600 15100 2600
Connection ~ 15100 2600
Wire Wire Line
	14600 2000 15300 2000
Wire Wire Line
	14850 2000 14850 2100
Connection ~ 14850 2000
Wire Wire Line
	13900 2000 14300 2000
Wire Wire Line
	9700 5900 9200 5900
Wire Wire Line
	9700 6000 9200 6000
Wire Wire Line
	9700 6100 9200 6100
Wire Wire Line
	9700 6200 9200 6200
Wire Wire Line
	9700 6300 9200 6300
Wire Wire Line
	9700 6400 9200 6400
Wire Wire Line
	9700 6500 9200 6500
Wire Wire Line
	9700 6600 9200 6600
Wire Wire Line
	9700 5400 9200 5400
Wire Wire Line
	9700 5500 9200 5500
Wire Wire Line
	9700 5600 9200 5600
Wire Wire Line
	9700 5700 9200 5700
Wire Wire Line
	9700 4500 9200 4500
Wire Wire Line
	9700 4400 9200 4400
Wire Wire Line
	9700 4300 9200 4300
Wire Wire Line
	9700 4200 9200 4200
Wire Wire Line
	9700 4100 9200 4100
Wire Wire Line
	9700 5300 9200 5300
Wire Wire Line
	9700 5200 9200 5200
Wire Wire Line
	9700 5100 9200 5100
Wire Wire Line
	9700 5000 9200 5000
Wire Wire Line
	9700 3900 9200 3900
Wire Wire Line
	9700 3800 9200 3800
Wire Wire Line
	9700 3700 9200 3700
Wire Wire Line
	9700 3600 9200 3600
Wire Wire Line
	9700 3500 9200 3500
Wire Wire Line
	9700 3400 9200 3400
Wire Wire Line
	9700 3300 9200 3300
Wire Wire Line
	8600 1000 8200 1000
Wire Wire Line
	7900 1000 7800 1000
Wire Wire Line
	7800 1000 7800 900 
Wire Wire Line
	8500 1200 8500 1100
Wire Wire Line
	8500 1100 8600 1100
Wire Wire Line
	14900 3200 15400 3200
Wire Wire Line
	14900 3300 15400 3300
Wire Wire Line
	14900 3400 15400 3400
Wire Wire Line
	14900 3500 15400 3500
Wire Wire Line
	14900 3600 15400 3600
Wire Wire Line
	14900 3700 15400 3700
Wire Wire Line
	15400 4000 15300 4000
Wire Wire Line
	15300 4000 15300 3900
Wire Wire Line
	15200 3900 15900 3900
Wire Wire Line
	15900 4800 15900 3800
Wire Wire Line
	15400 4700 15300 4700
Wire Wire Line
	15300 4700 15300 4800
Wire Wire Line
	15200 4800 15900 4800
Connection ~ 15900 3900
Connection ~ 15300 4800
Wire Wire Line
	15400 4600 14800 4600
Wire Wire Line
	14800 3900 14800 4900
Wire Wire Line
	14900 4800 14800 4800
Connection ~ 14800 4800
Connection ~ 15300 3900
Wire Wire Line
	14900 3900 14800 3900
Connection ~ 14800 4600
Wire Wire Line
	15400 4100 14800 4100
Connection ~ 14800 4100
Wire Wire Line
	14900 4200 15400 4200
Wire Wire Line
	14900 4300 15400 4300
Wire Wire Line
	14900 4400 15400 4400
Wire Wire Line
	14900 4500 15400 4500
Wire Wire Line
	7800 1800 7900 1800
Wire Wire Line
	7500 1800 7400 1800
Connection ~ 7400 2100
Wire Wire Line
	12800 2800 12500 2800
Wire Wire Line
	12500 2250 12500 5500
Wire Wire Line
	12800 2500 12500 2500
Connection ~ 12500 2500
Wire Wire Line
	12800 3000 12700 3000
Wire Wire Line
	12700 3000 12700 3200
Wire Wire Line
	12700 3200 13300 3200
Wire Wire Line
	13300 2500 13300 6200
Wire Wire Line
	13300 2500 13100 2500
Wire Wire Line
	13300 3400 13100 3400
Connection ~ 13300 3200
Wire Wire Line
	12800 3900 12700 3900
Wire Wire Line
	12700 3900 12700 4100
Wire Wire Line
	12700 4100 13300 4100
Connection ~ 13300 3400
Connection ~ 13300 4100
Wire Wire Line
	12500 3400 12800 3400
Connection ~ 12500 2800
Wire Wire Line
	12500 3700 12800 3700
Connection ~ 12500 3400
Wire Wire Line
	12500 4300 12800 4300
Connection ~ 12500 3700
Wire Wire Line
	12500 4600 12800 4600
Connection ~ 12500 4300
Wire Wire Line
	13100 4300 13300 4300
Connection ~ 13300 4300
Wire Wire Line
	12800 4800 12700 4800
Wire Wire Line
	12700 4800 12700 5000
Wire Wire Line
	12700 5000 13300 5000
Connection ~ 13300 5000
Wire Wire Line
	12500 5200 12800 5200
Connection ~ 12500 4600
Wire Wire Line
	13100 5200 13300 5200
Connection ~ 13300 5200
Wire Wire Line
	12500 5500 12800 5500
Connection ~ 12500 5200
Wire Wire Line
	12800 5700 12700 5700
Wire Wire Line
	12700 5700 12700 5900
Wire Wire Line
	12700 5900 13300 5900
Connection ~ 13300 5900
Wire Wire Line
	11900 2900 12800 2900
Wire Wire Line
	11900 3800 12800 3800
Wire Wire Line
	11900 4700 12800 4700
Wire Wire Line
	11900 5600 12800 5600
Wire Wire Line
	10400 2600 10400 2700
Connection ~ 10050 2600
Wire Wire Line
	10800 3000 10800 2900
Wire Wire Line
	10700 2900 10900 2900
Wire Wire Line
	10800 3400 10800 3300
Connection ~ 10800 2900
Wire Wire Line
	11200 2900 11300 2900
Wire Wire Line
	11300 2900 11300 2600
Connection ~ 10400 2600
Wire Wire Line
	11100 3600 11300 3600
Wire Wire Line
	11200 3600 11200 3700
Connection ~ 11200 3600
Wire Wire Line
	10800 4200 10800 3800
Wire Wire Line
	11200 4000 11200 4100
Wire Wire Line
	11200 4100 10800 4100
Connection ~ 10800 4100
Wire Wire Line
	12000 3600 11600 3600
Text Label 12000 3600 2    60   ~ 0
PWRON
Wire Wire Line
	10400 3500 10400 3100
Text Label 10400 3500 1    60   ~ 0
MPWR
$Comp
L ULN2003 U1
U 1 1 5A930F20
P 11250 8200
F 0 "U1" H 11250 8300 50  0000 C CNN
F 1 "ULN2003" H 11250 8100 50  0000 C CNN
F 2 "SMD_Packages:SO-16-N" H 11250 8200 50  0001 C CNN
F 3 "" H 11250 8200 50  0000 C CNN
	1    11250 8200
	1    0    0    -1  
$EndComp
NoConn ~ 11900 8200
NoConn ~ 10600 8000
NoConn ~ 10600 8200
$Comp
L R R17
U 1 1 5A93211F
P 12150 7900
F 0 "R17" V 12230 7900 50  0000 C CNN
F 1 "1K" V 12150 7900 50  0000 C CNN
F 2 "Resistors_SMD:R_1206_HandSoldering" V 12080 7900 50  0001 C CNN
F 3 "" H 12150 7900 50  0000 C CNN
	1    12150 7900
	0    -1   -1   0   
$EndComp
$Comp
L R R19
U 1 1 5A93227B
P 12450 7800
F 0 "R19" V 12530 7800 50  0000 C CNN
F 1 "1K" V 12450 7800 50  0000 C CNN
F 2 "Resistors_SMD:R_1206_HandSoldering" V 12380 7800 50  0001 C CNN
F 3 "" H 12450 7800 50  0000 C CNN
	1    12450 7800
	0    -1   -1   0   
$EndComp
Wire Wire Line
	11900 7900 12000 7900
Wire Wire Line
	11900 7800 12300 7800
$Comp
L R R12
U 1 1 5A932745
P 10350 7900
F 0 "R12" V 10430 7900 50  0000 C CNN
F 1 "1K" V 10350 7900 50  0000 C CNN
F 2 "Resistors_SMD:R_1206_HandSoldering" V 10280 7900 50  0001 C CNN
F 3 "" H 10350 7900 50  0000 C CNN
	1    10350 7900
	0    -1   -1   0   
$EndComp
$Comp
L R R11
U 1 1 5A93288B
P 10050 7800
F 0 "R11" V 10130 7800 50  0000 C CNN
F 1 "1K" V 10050 7800 50  0000 C CNN
F 2 "Resistors_SMD:R_1206_HandSoldering" V 9980 7800 50  0001 C CNN
F 3 "" H 10050 7800 50  0000 C CNN
	1    10050 7800
	0    -1   -1   0   
$EndComp
Wire Wire Line
	10600 7900 10500 7900
Wire Wire Line
	10600 7800 10200 7800
Wire Wire Line
	9900 7800 9800 7800
Wire Wire Line
	9800 7800 9800 8350
Wire Wire Line
	9800 7900 10200 7900
Connection ~ 9800 7900
Text Label 9800 8350 1    60   ~ 0
WLED
$Comp
L VCC #PWR023
U 1 1 5A933F0B
P 12900 8400
F 0 "#PWR023" H 12900 8250 50  0001 C CNN
F 1 "VCC" H 12900 8550 50  0000 C CNN
F 2 "" H 12900 8400 50  0000 C CNN
F 3 "" H 12900 8400 50  0000 C CNN
	1    12900 8400
	1    0    0    -1  
$EndComp
Wire Wire Line
	11900 8600 12900 8600
$Comp
L CONN_01X04 P4
U 1 1 5A935363
P 12900 7950
F 0 "P4" H 12900 8200 50  0000 C CNN
F 1 "LIGHTS" V 13000 7950 50  0000 C CNN
F 2 "Pin_Headers:Pin_Header_Straight_1x04" H 12900 7950 50  0001 C CNN
F 3 "" H 12900 7950 50  0000 C CNN
	1    12900 7950
	1    0    0    -1  
$EndComp
Wire Wire Line
	12600 7800 12700 7800
Wire Wire Line
	12300 7900 12700 7900
Wire Wire Line
	12700 8100 12600 8100
Wire Wire Line
	12600 8000 12600 8600
Wire Wire Line
	12700 8000 12600 8000
Connection ~ 12600 8100
$Comp
L R R18
U 1 1 5A936919
P 12250 8400
F 0 "R18" V 12330 8400 50  0000 C CNN
F 1 "6.2K" V 12250 8400 50  0000 C CNN
F 2 "Resistors_SMD:R_1206_HandSoldering" V 12180 8400 50  0001 C CNN
F 3 "" H 12250 8400 50  0000 C CNN
	1    12250 8400
	0    -1   -1   0   
$EndComp
NoConn ~ 11900 8000
Wire Wire Line
	12900 8600 12900 8400
Connection ~ 12600 8600
Wire Wire Line
	11900 8300 12000 8300
Wire Wire Line
	12000 8300 12000 8750
Wire Wire Line
	11900 8400 12100 8400
Connection ~ 12000 8400
Wire Wire Line
	12400 8400 12600 8400
Connection ~ 12600 8400
Wire Wire Line
	12000 8750 12450 8750
Wire Wire Line
	10050 8300 10600 8300
Wire Wire Line
	10050 8400 10600 8400
$Comp
L CONN_01X04 P3
U 1 1 5A93B050
P 11300 6450
F 0 "P3" H 11300 6700 50  0000 C CNN
F 1 "DCDC" V 11400 6450 50  0000 C CNN
F 2 "Pin_Headers:Pin_Header_Straight_1x04" H 11300 6450 50  0001 C CNN
F 3 "" H 11300 6450 50  0000 C CNN
	1    11300 6450
	1    0    0    -1  
$EndComp
$Comp
L VCC #PWR024
U 1 1 5A93B835
P 11000 6700
F 0 "#PWR024" H 11000 6550 50  0001 C CNN
F 1 "VCC" H 11000 6850 50  0000 C CNN
F 2 "" H 11000 6700 50  0000 C CNN
F 3 "" H 11000 6700 50  0000 C CNN
	1    11000 6700
	-1   0    0    1   
$EndComp
Wire Wire Line
	11100 6600 11000 6600
Wire Wire Line
	11000 6600 11000 6700
$Comp
L +12V #PWR025
U 1 1 5A93BB9E
P 11000 6200
F 0 "#PWR025" H 11000 6050 50  0001 C CNN
F 1 "+12V" H 11000 6340 50  0000 C CNN
F 2 "" H 11000 6200 50  0000 C CNN
F 3 "" H 11000 6200 50  0000 C CNN
	1    11000 6200
	1    0    0    -1  
$EndComp
$Comp
L GND #PWR026
U 1 1 5A93BF72
P 10800 6700
F 0 "#PWR026" H 10800 6450 50  0001 C CNN
F 1 "GND" H 10800 6550 50  0000 C CNN
F 2 "" H 10800 6700 50  0000 C CNN
F 3 "" H 10800 6700 50  0000 C CNN
	1    10800 6700
	1    0    0    -1  
$EndComp
Wire Wire Line
	10800 6700 10800 6500
Wire Wire Line
	10800 6500 11100 6500
Wire Wire Line
	11100 6400 11000 6400
Wire Wire Line
	11000 6400 11000 6500
Connection ~ 11000 6500
$Comp
L CONN_01X02 P2
U 1 1 5A93CD7A
P 11300 5650
F 0 "P2" H 11300 5800 50  0000 C CNN
F 1 "L298N" V 11400 5650 50  0000 C CNN
F 2 "Pin_Headers:Pin_Header_Straight_1x02_Pitch3.96mm_Friction_Lock" H 11300 5650 50  0001 C CNN
F 3 "" H 11300 5650 50  0000 C CNN
	1    11300 5650
	1    0    0    -1  
$EndComp
$Comp
L GND #PWR027
U 1 1 5A93CFF3
P 11000 5800
F 0 "#PWR027" H 11000 5550 50  0001 C CNN
F 1 "GND" H 11000 5650 50  0000 C CNN
F 2 "" H 11000 5800 50  0000 C CNN
F 3 "" H 11000 5800 50  0000 C CNN
	1    11000 5800
	1    0    0    -1  
$EndComp
Wire Wire Line
	11100 5700 11000 5700
Wire Wire Line
	11000 5700 11000 5800
Wire Wire Line
	10550 5600 11100 5600
Text Label 10550 5600 0    60   ~ 0
MPWR
$Comp
L SW_PUSH SW1
U 1 1 5A93E234
P 4200 5300
F 0 "SW1" H 4350 5410 50  0000 C CNN
F 1 "PB1" H 4200 5220 50  0000 C CNN
F 2 "fp_main:PBMouse" H 4200 5300 50  0001 C CNN
F 3 "" H 4200 5300 50  0000 C CNN
	1    4200 5300
	1    0    0    -1  
$EndComp
$Comp
L SW_PUSH SW2
U 1 1 5A93E439
P 4200 5600
F 0 "SW2" H 4350 5710 50  0000 C CNN
F 1 "PB2" H 4200 5520 50  0000 C CNN
F 2 "fp_main:PBMouse" H 4200 5600 50  0001 C CNN
F 3 "" H 4200 5600 50  0000 C CNN
	1    4200 5600
	1    0    0    -1  
$EndComp
$Comp
L SW_PUSH SW3
U 1 1 5A93E504
P 4200 5900
F 0 "SW3" H 4350 6010 50  0000 C CNN
F 1 "PB3" H 4200 5820 50  0000 C CNN
F 2 "fp_main:PBMouse" H 4200 5900 50  0001 C CNN
F 3 "" H 4200 5900 50  0000 C CNN
	1    4200 5900
	1    0    0    -1  
$EndComp
$Comp
L SW_PUSH SW4
U 1 1 5A93E5D0
P 4200 6200
F 0 "SW4" H 4350 6310 50  0000 C CNN
F 1 "PB4" H 4200 6120 50  0000 C CNN
F 2 "fp_main:PBMouse" H 4200 6200 50  0001 C CNN
F 3 "" H 4200 6200 50  0000 C CNN
	1    4200 6200
	1    0    0    -1  
$EndComp
$Comp
L R R4
U 1 1 5A93EAC7
P 3800 5050
F 0 "R4" V 3880 5050 50  0000 C CNN
F 1 "6.2K" V 3800 5050 50  0000 C CNN
F 2 "Resistors_SMD:R_1206_HandSoldering" V 3730 5050 50  0001 C CNN
F 3 "" H 3800 5050 50  0000 C CNN
	1    3800 5050
	1    0    0    -1  
$EndComp
$Comp
L R R3
U 1 1 5A93EF6D
P 3600 5050
F 0 "R3" V 3680 5050 50  0000 C CNN
F 1 "6.2K" V 3600 5050 50  0000 C CNN
F 2 "Resistors_SMD:R_1206_HandSoldering" V 3530 5050 50  0001 C CNN
F 3 "" H 3600 5050 50  0000 C CNN
	1    3600 5050
	1    0    0    -1  
$EndComp
$Comp
L R R2
U 1 1 5A93F041
P 3400 5050
F 0 "R2" V 3480 5050 50  0000 C CNN
F 1 "6.2K" V 3400 5050 50  0000 C CNN
F 2 "Resistors_SMD:R_1206_HandSoldering" V 3330 5050 50  0001 C CNN
F 3 "" H 3400 5050 50  0000 C CNN
	1    3400 5050
	1    0    0    -1  
$EndComp
$Comp
L R R1
U 1 1 5A93F110
P 3200 5050
F 0 "R1" V 3280 5050 50  0000 C CNN
F 1 "6.2K" V 3200 5050 50  0000 C CNN
F 2 "Resistors_SMD:R_1206_HandSoldering" V 3130 5050 50  0001 C CNN
F 3 "" H 3200 5050 50  0000 C CNN
	1    3200 5050
	1    0    0    -1  
$EndComp
Wire Wire Line
	2700 5300 3900 5300
Wire Wire Line
	3800 5300 3800 5200
Wire Wire Line
	2700 5600 3900 5600
Wire Wire Line
	3600 5600 3600 5200
Wire Wire Line
	2700 5900 3900 5900
Wire Wire Line
	3400 5900 3400 5200
Wire Wire Line
	2700 6200 3900 6200
Wire Wire Line
	3200 6200 3200 5200
Connection ~ 3800 5300
Connection ~ 3600 5600
Connection ~ 3400 5900
Connection ~ 3200 6200
$Comp
L VCC #PWR028
U 1 1 5A93FD54
P 3200 4700
F 0 "#PWR028" H 3200 4550 50  0001 C CNN
F 1 "VCC" H 3200 4850 50  0000 C CNN
F 2 "" H 3200 4700 50  0000 C CNN
F 3 "" H 3200 4700 50  0000 C CNN
	1    3200 4700
	1    0    0    -1  
$EndComp
Wire Wire Line
	3200 4900 3200 4700
Wire Wire Line
	3400 4900 3400 4800
Wire Wire Line
	3200 4800 3800 4800
Connection ~ 3200 4800
Wire Wire Line
	3600 4800 3600 4900
Connection ~ 3400 4800
Wire Wire Line
	3800 4800 3800 4900
Connection ~ 3600 4800
Text Label 2700 5300 0    60   ~ 0
BT_1
Text Label 2700 5600 0    60   ~ 0
BT_2
Text Label 2700 5900 0    60   ~ 0
BT_3
Text Label 2700 6200 0    60   ~ 0
BT_4
$Comp
L GND #PWR029
U 1 1 5A941B10
P 4700 6400
F 0 "#PWR029" H 4700 6150 50  0001 C CNN
F 1 "GND" H 4700 6250 50  0000 C CNN
F 2 "" H 4700 6400 50  0000 C CNN
F 3 "" H 4700 6400 50  0000 C CNN
	1    4700 6400
	1    0    0    -1  
$EndComp
Wire Wire Line
	4500 6200 4700 6200
Wire Wire Line
	4700 5300 4700 6400
Wire Wire Line
	4500 5900 4700 5900
Connection ~ 4700 6200
Wire Wire Line
	4500 5600 4700 5600
Connection ~ 4700 5900
Wire Wire Line
	4500 5300 4700 5300
Connection ~ 4700 5600
$Comp
L PWR_FLAG #FLG030
U 1 1 5A9443B1
P 12700 2400
F 0 "#FLG030" H 12700 2495 50  0001 C CNN
F 1 "PWR_FLAG" H 12700 2580 50  0000 C CNN
F 2 "" H 12700 2400 50  0000 C CNN
F 3 "" H 12700 2400 50  0000 C CNN
	1    12700 2400
	1    0    0    -1  
$EndComp
Wire Wire Line
	12700 2400 12700 2500
Connection ~ 12700 2500
$Comp
L PWR_FLAG #FLG031
U 1 1 5A94538F
P 12300 1000
F 0 "#FLG031" H 12300 1095 50  0001 C CNN
F 1 "PWR_FLAG" H 12300 1180 50  0000 C CNN
F 2 "" H 12300 1000 50  0000 C CNN
F 3 "" H 12300 1000 50  0000 C CNN
	1    12300 1000
	1    0    0    -1  
$EndComp
Connection ~ 12300 1100
$Comp
L SPEAKER SP1
U 1 1 5A945A73
P 10600 1500
F 0 "SP1" H 10500 1750 50  0000 C CNN
F 1 "SPEAKER" H 10500 1250 50  0000 C CNN
F 2 "fp_main:Speaker7.62" H 10600 1500 50  0001 C CNN
F 3 "" H 10600 1500 50  0000 C CNN
	1    10600 1500
	1    0    0    -1  
$EndComp
Wire Wire Line
	9800 1400 10300 1400
Wire Wire Line
	10300 1600 10200 1600
Wire Wire Line
	10200 1600 10200 2100
Text Label 9800 1400 0    60   ~ 0
BEEPER
Wire Wire Line
	12900 1200 13000 1200
Wire Wire Line
	11100 6300 11000 6300
Wire Wire Line
	11000 6300 11000 6200
$Comp
L CONN_01X02 P13
U 1 1 5A9D252A
P 11300 4900
F 0 "P13" H 11300 5050 50  0000 C CNN
F 1 "MV12" V 11400 4900 50  0000 C CNN
F 2 "Pin_Headers:Pin_Header_Straight_1x02_Pitch3.96mm_Friction_Lock" H 11300 4900 50  0001 C CNN
F 3 "" H 11300 4900 50  0000 C CNN
	1    11300 4900
	1    0    0    -1  
$EndComp
$Comp
L GND #PWR033
U 1 1 5A9D2722
P 11000 5250
F 0 "#PWR033" H 11000 5000 50  0001 C CNN
F 1 "GND" H 11000 5100 50  0000 C CNN
F 2 "" H 11000 5250 50  0000 C CNN
F 3 "" H 11000 5250 50  0000 C CNN
	1    11000 5250
	1    0    0    -1  
$EndComp
$Comp
L +12V #PWR034
U 1 1 5A9D27ED
P 11000 4550
F 0 "#PWR034" H 11000 4400 50  0001 C CNN
F 1 "+12V" H 11000 4690 50  0000 C CNN
F 2 "" H 11000 4550 50  0000 C CNN
F 3 "" H 11000 4550 50  0000 C CNN
	1    11000 4550
	1    0    0    -1  
$EndComp
$Comp
L CP C19
U 1 1 5A9D2B38
P 10800 4900
F 0 "C19" H 10825 5000 50  0000 L CNN
F 1 "2200.0" H 10825 4800 50  0000 L CNN
F 2 "Capacitors_ThroughHole:C_Radial_D16_L25_P7.5" H 10838 4750 50  0001 C CNN
F 3 "" H 10800 4900 50  0000 C CNN
	1    10800 4900
	-1   0    0    1   
$EndComp
Wire Wire Line
	11100 4850 11000 4850
Wire Wire Line
	11000 4850 11000 4550
Wire Wire Line
	11100 4950 11000 4950
Wire Wire Line
	11000 4950 11000 5250
Wire Wire Line
	10800 5050 10800 5150
Wire Wire Line
	10800 5150 11000 5150
Connection ~ 11000 5150
Wire Wire Line
	10800 4750 10800 4650
Wire Wire Line
	10800 4650 11000 4650
Connection ~ 11000 4650
Wire Wire Line
	10050 8100 10600 8100
Text Label 10050 8100 0    60   ~ 0
BEEP
Wire Wire Line
	12450 8100 11900 8100
Text Label 12450 8100 2    60   ~ 0
BEEPER
Wire Wire Line
	15800 2350 15250 2350
Wire Wire Line
	15250 2350 15250 2100
Wire Wire Line
	15250 2100 15300 2100
NoConn ~ 15300 1600
$EndSCHEMATC
